[
	{
		"first_name" : "Martin"
		, "last_name" : "Riggs"
		, "email_address" : "martin@example.com"
		, "address_line_1" : "One Infinite Loop"
		, "city" : "Cupertino"
		, "state" : "CA"
		, "country" : "USA"
		, "postalCode" : "95014"
	}
	, {
		"first_name" : "Neo"
		, "last_name" : "Anderson"
		, "email_address" : "neo@example.com"
		, "address_line_1" : "1600 Amphitheatre Pkwy"
		, "city" : "Mountain View"
		, "state" : "CA"
		, "country" : "USA"
		, "postalCode" : "94043"
	}
]